[
  {
    "aliases": ["duckduckgo", "ddg"],
    "name": "DuckDuckGo",
    "urls": {
      "search": {
        "base": "https://duckduckgo.com/",
        "params": [],
        "searchTermParamName": "q"
      }
    },
    "id": "04e99a38-13ee-47d8-8aa4-64482b3dea99",
    "identifier": "ddg",
    "recordType": "engine",
    "variants": []
  },
  {
    "aliases": ["ddgonion"],
    "name": "DuckDuckGo (.onion)",
    "urls": {
      "search": {
        "base": "https://duckduckgogg42xjoc72x3sjasowoarfbgcmvfimaftt6twagswzczad.onion/",
        "params": [],
        "searchTermParamName": "q"
      }
    },
    "id": "1e431da4-a60c-4411-9251-a95a841d451f",
    "identifier": "ddg-onion",
    "recordType": "engine",
    "variants": []
  },
  {
    "aliases": ["startpage"],
    "name": "Startpage",
    "urls": {
      "search": {
        "base": "https://www.startpage.com/sp/search",
        "params": [],
        "searchTermParamName": "q"
      }
    },
    "id": "927bbd9f-b2f3-48b4-8974-1c1148028f4d",
    "identifier": "startpage",
    "recordType": "engine",
    "variants": []
  },
  {
    "aliases": ["startpage-onion"],
    "name": "Startpage (.onion)",
    "urls": {
      "search": {
        "base": "http://startpagel6srwcjlue4zgq3zevrujfaow726kjytqbbjyrswwmjzcqd.onion/sp/search",
        "params": [],
        "searchTermParamName": "q"
      }
    },
    "id": "e7eaba8d-6b9e-43fb-a799-b01b096c03ff",
    "identifier": "startpage-onion",
    "recordType": "engine",
    "variants": []
  },
  {
    "aliases": ["wikipedia"],
    "classification": "unknown",
    "name": "Wikipedia (en)",
    "urls": {
      "search": {
        "base": "https://en.wikipedia.org/wiki/Special:Search",
        "params": [],
        "searchTermParamName": "search"
      }
    },
    "id": "7f6d23c2-191e-483e-af3a-ce6451e3a8dd",
    "identifier": "wikipedia",
    "recordType": "engine",
    "variants": []
  }
]
