{
  "default": {
    "searchDefault": "DuckDuckGo",
    "searchOrder": [
      "DuckDuckGo",
      "DuckDuckGo (.onion)",
      "Startpage",
      "Startpage (.onion)",
      "Wikipedia"
    ],
    "visibleDefaultEngines": [
      "ddg",
      "ddg-onion",
      "startpage",
      "startpage-onion",
      "wikipedia"
    ]
  },
  "regionOverrides": {},
  "locales": {}
}
